{"uid":"86586d2dc3db7e76","name":"<TestID>: Search external customers","historyId":"e6214354566aaf3288be4f615671691b","time":{"start":1705942805311,"stop":1705942825696,"duration":20385},"status":"passed","flaky":false,"newFailed":false,"newBroken":false,"newPassed":false,"retriesCount":0,"retriesStatusChange":false,"beforeStages":[],"testStage":{"status":"passed","steps":[{"name":"Given Get list of users from reqres.in","time":{"start":1705942805313,"stop":1705942805359,"duration":46},"status":"passed","steps":[{"name":"Getting payload data from the endpoint: users","time":{"start":1705942805317,"stop":1705942805317,"duration":0},"status":"passed","steps":[],"attachments":[],"parameters":[],"attachmentsCount":0,"hasContent":false,"attachmentStep":false,"shouldDisplayMessage":false,"stepsCount":0},{"name":"Making a GET request to https://reqres.in/api/users","time":{"start":1705942805317,"stop":1705942805317,"duration":0},"status":"passed","steps":[],"attachments":[],"parameters":[],"attachmentsCount":0,"hasContent":false,"attachmentStep":false,"shouldDisplayMessage":false,"stepsCount":0},{"name":"API response received, data {\"page\":2,\"per_page\":6,\"total\":12,\"total_pages\":2,\"data\":[{\"id\":7,\"email\":\"michael.lawson@reqres.in\",\"first_name\":\"Michael\",\"last_name\":\"Lawson\",\"avatar\":\"https://reqres.in/img/faces/7-image.jpg\"},{\"id\":8,\"email\":\"lindsay.ferguson@reqres.in\",\"first_name\":\"Lindsay\",\"last_name\":\"Ferguson\",\"avatar\":\"https://reqres.in/img/faces/8-image.jpg\"},{\"id\":9,\"email\":\"tobias.funke@reqres.in\",\"first_name\":\"Tobias\",\"last_name\":\"Funke\",\"avatar\":\"https://reqres.in/img/faces/9-image.jpg\"},{\"id\":10,\"email\":\"byron.fields@reqres.in\",\"first_name\":\"Byron\",\"last_name\":\"Fields\",\"avatar\":\"https://reqres.in/img/faces/10-image.jpg\"},{\"id\":11,\"email\":\"george.edwards@reqres.in\",\"first_name\":\"George\",\"last_name\":\"Edwards\",\"avatar\":\"https://reqres.in/img/faces/11-image.jpg\"},{\"id\":12,\"email\":\"rachel.howell@reqres.in\",\"first_name\":\"Rachel\",\"last_name\":\"Howell\",\"avatar\":\"https://reqres.in/img/faces/12-image.jpg\"}],\"support\":{\"url\":\"https://reqres.in/#support-heading\",\"text\":\"To keep ReqRes free, contributions towards server costs are appreciated!\"}}","time":{"start":1705942805358,"stop":1705942805358,"duration":0},"status":"passed","steps":[],"attachments":[],"parameters":[],"attachmentsCount":0,"hasContent":false,"attachmentStep":false,"shouldDisplayMessage":false,"stepsCount":0},{"name":"API response data storaged in json file ---> /data/api-res/ \"file\"","time":{"start":1705942805358,"stop":1705942805358,"duration":0},"status":"passed","steps":[],"attachments":[],"parameters":[],"attachmentsCount":0,"hasContent":false,"attachmentStep":false,"shouldDisplayMessage":false,"stepsCount":0}],"attachments":[],"parameters":[],"attachmentsCount":0,"hasContent":true,"attachmentStep":false,"shouldDisplayMessage":false,"stepsCount":4},{"name":"When An as admin user login to nopcommerce site","time":{"start":1705942805359,"stop":1705942817830,"duration":12471},"status":"passed","steps":[{"name":"Username entered successfuly...","time":{"start":1705942806519,"stop":1705942806519,"duration":0},"status":"passed","steps":[],"attachments":[],"parameters":[],"attachmentsCount":0,"hasContent":false,"attachmentStep":false,"shouldDisplayMessage":false,"stepsCount":0},{"name":"Password: admin entered successfuly...","time":{"start":1705942806630,"stop":1705942806630,"duration":0},"status":"passed","steps":[],"attachments":[],"parameters":[],"attachmentsCount":0,"hasContent":false,"attachmentStep":false,"shouldDisplayMessage":false,"stepsCount":0}],"attachments":[],"parameters":[],"attachmentsCount":0,"hasContent":true,"attachmentStep":false,"shouldDisplayMessage":false,"stepsCount":2},{"name":"Then Verify if all users exist in customers list","time":{"start":1705942817830,"stop":1705942825695,"duration":7865},"status":"passed","steps":[{"name":"Navigating to Customers page","time":{"start":1705942818189,"stop":1705942818189,"duration":0},"status":"passed","steps":[],"attachments":[],"parameters":[],"attachmentsCount":0,"hasContent":false,"attachmentStep":false,"shouldDisplayMessage":false,"stepsCount":0},{"name":"Searching user:  Michael Lawson","time":{"start":1705942818190,"stop":1705942818190,"duration":0},"status":"passed","steps":[],"attachments":[],"parameters":[],"attachmentsCount":0,"hasContent":false,"attachmentStep":false,"shouldDisplayMessage":false,"stepsCount":0},{"name":"Searching user:  Lindsay Ferguson","time":{"start":1705942819650,"stop":1705942819650,"duration":0},"status":"passed","steps":[],"attachments":[],"parameters":[],"attachmentsCount":0,"hasContent":false,"attachmentStep":false,"shouldDisplayMessage":false,"stepsCount":0},{"name":"Searching user:  Tobias Funke","time":{"start":1705942820917,"stop":1705942820917,"duration":0},"status":"passed","steps":[],"attachments":[],"parameters":[],"attachmentsCount":0,"hasContent":false,"attachmentStep":false,"shouldDisplayMessage":false,"stepsCount":0},{"name":"Searching user:  Byron Fields","time":{"start":1705942822104,"stop":1705942822104,"duration":0},"status":"passed","steps":[],"attachments":[],"parameters":[],"attachmentsCount":0,"hasContent":false,"attachmentStep":false,"shouldDisplayMessage":false,"stepsCount":0},{"name":"Searching user:  George Edwards","time":{"start":1705942823317,"stop":1705942823317,"duration":0},"status":"passed","steps":[],"attachments":[],"parameters":[],"attachmentsCount":0,"hasContent":false,"attachmentStep":false,"shouldDisplayMessage":false,"stepsCount":0},{"name":"Searching user:  Rachel Howell","time":{"start":1705942824507,"stop":1705942824507,"duration":0},"status":"passed","steps":[],"attachments":[],"parameters":[],"attachmentsCount":0,"hasContent":false,"attachmentStep":false,"shouldDisplayMessage":false,"stepsCount":0}],"attachments":[],"parameters":[],"attachmentsCount":0,"hasContent":true,"attachmentStep":false,"shouldDisplayMessage":false,"stepsCount":7}],"attachments":[],"parameters":[],"attachmentsCount":0,"hasContent":true,"attachmentStep":false,"shouldDisplayMessage":false,"stepsCount":16},"afterStages":[],"labels":[{"name":"language","value":"javascript"},{"name":"framework","value":"wdio"},{"name":"package","value":".home.runner.work.wdio-e2e-testing.wdio-e2e-testing.test.features.ecommerce.Store.E2E.feature"},{"name":"thread","value":"0-3"},{"name":"suite","value":"E2E Test to Store Website"},{"name":"feature","value":"E2E Test to Store Website"},{"name":"resultFormat","value":"allure2"}],"parameters":[{"name":"browser","value":"chrome-headless-shell-120.0.6099.216"}],"links":[],"hidden":false,"retry":false,"extra":{"severity":"normal","retries":[],"categories":[],"tags":[]},"source":"86586d2dc3db7e76.json","parameterValues":["chrome-headless-shell-120.0.6099.216"]}