{"uid":"a094350077aeedb3","name":"<TestID>: Search external customers","historyId":"61177de859c7c0d7d1799bbd0336d347","time":{"start":1706306828978,"stop":1706306847888,"duration":18910},"status":"passed","flaky":false,"newFailed":false,"newBroken":false,"newPassed":false,"retriesCount":0,"retriesStatusChange":false,"beforeStages":[],"testStage":{"status":"passed","steps":[{"name":"Given Get list of users from reqres.in","time":{"start":1706306828981,"stop":1706306829017,"duration":36},"status":"passed","steps":[{"name":"Getting payload data from the endpoint: users","time":{"start":1706306828985,"stop":1706306828985,"duration":0},"status":"passed","steps":[],"attachments":[],"parameters":[],"shouldDisplayMessage":false,"stepsCount":0,"attachmentsCount":0,"hasContent":false,"attachmentStep":false},{"name":"Making a GET request to https://reqres.in/api/users","time":{"start":1706306828985,"stop":1706306828985,"duration":0},"status":"passed","steps":[],"attachments":[],"parameters":[],"shouldDisplayMessage":false,"stepsCount":0,"attachmentsCount":0,"hasContent":false,"attachmentStep":false},{"name":"API response received, data {\"page\":2,\"per_page\":6,\"total\":12,\"total_pages\":2,\"data\":[{\"id\":7,\"email\":\"michael.lawson@reqres.in\",\"first_name\":\"Michael\",\"last_name\":\"Lawson\",\"avatar\":\"https://reqres.in/img/faces/7-image.jpg\"},{\"id\":8,\"email\":\"lindsay.ferguson@reqres.in\",\"first_name\":\"Lindsay\",\"last_name\":\"Ferguson\",\"avatar\":\"https://reqres.in/img/faces/8-image.jpg\"},{\"id\":9,\"email\":\"tobias.funke@reqres.in\",\"first_name\":\"Tobias\",\"last_name\":\"Funke\",\"avatar\":\"https://reqres.in/img/faces/9-image.jpg\"},{\"id\":10,\"email\":\"byron.fields@reqres.in\",\"first_name\":\"Byron\",\"last_name\":\"Fields\",\"avatar\":\"https://reqres.in/img/faces/10-image.jpg\"},{\"id\":11,\"email\":\"george.edwards@reqres.in\",\"first_name\":\"George\",\"last_name\":\"Edwards\",\"avatar\":\"https://reqres.in/img/faces/11-image.jpg\"},{\"id\":12,\"email\":\"rachel.howell@reqres.in\",\"first_name\":\"Rachel\",\"last_name\":\"Howell\",\"avatar\":\"https://reqres.in/img/faces/12-image.jpg\"}],\"support\":{\"url\":\"https://reqres.in/#support-heading\",\"text\":\"To keep ReqRes free, contributions towards server costs are appreciated!\"}}","time":{"start":1706306829015,"stop":1706306829015,"duration":0},"status":"passed","steps":[],"attachments":[],"parameters":[],"shouldDisplayMessage":false,"stepsCount":0,"attachmentsCount":0,"hasContent":false,"attachmentStep":false},{"name":"API response data storaged in json file ---> /data/api-res/ \"file\"","time":{"start":1706306829016,"stop":1706306829016,"duration":0},"status":"passed","steps":[],"attachments":[],"parameters":[],"shouldDisplayMessage":false,"stepsCount":0,"attachmentsCount":0,"hasContent":false,"attachmentStep":false}],"attachments":[],"parameters":[],"shouldDisplayMessage":false,"stepsCount":4,"attachmentsCount":0,"hasContent":true,"attachmentStep":false},{"name":"When An as admin user login to nopcommerce site","time":{"start":1706306829017,"stop":1706306840165,"duration":11148},"status":"passed","steps":[{"name":"Username entered successfuly...","time":{"start":1706306829508,"stop":1706306829508,"duration":0},"status":"passed","steps":[],"attachments":[],"parameters":[],"shouldDisplayMessage":false,"stepsCount":0,"attachmentsCount":0,"hasContent":false,"attachmentStep":false},{"name":"Password: admin entered successfuly...","time":{"start":1706306829588,"stop":1706306829588,"duration":0},"status":"passed","steps":[],"attachments":[],"parameters":[],"shouldDisplayMessage":false,"stepsCount":0,"attachmentsCount":0,"hasContent":false,"attachmentStep":false}],"attachments":[],"parameters":[],"shouldDisplayMessage":false,"stepsCount":2,"attachmentsCount":0,"hasContent":true,"attachmentStep":false},{"name":"Then Verify if all users exist in customers list","time":{"start":1706306840165,"stop":1706306847886,"duration":7721},"status":"passed","steps":[{"name":"Navigating to Customers page","time":{"start":1706306840397,"stop":1706306840397,"duration":0},"status":"passed","steps":[],"attachments":[],"parameters":[],"shouldDisplayMessage":false,"stepsCount":0,"attachmentsCount":0,"hasContent":false,"attachmentStep":false},{"name":"Searching user:  Michael Lawson","time":{"start":1706306840398,"stop":1706306840398,"duration":0},"status":"passed","steps":[],"attachments":[],"parameters":[],"shouldDisplayMessage":false,"stepsCount":0,"attachmentsCount":0,"hasContent":false,"attachmentStep":false},{"name":"Searching user:  Lindsay Ferguson","time":{"start":1706306841800,"stop":1706306841800,"duration":0},"status":"passed","steps":[],"attachments":[],"parameters":[],"shouldDisplayMessage":false,"stepsCount":0,"attachmentsCount":0,"hasContent":false,"attachmentStep":false},{"name":"Searching user:  Tobias Funke","time":{"start":1706306843035,"stop":1706306843035,"duration":0},"status":"passed","steps":[],"attachments":[],"parameters":[],"shouldDisplayMessage":false,"stepsCount":0,"attachmentsCount":0,"hasContent":false,"attachmentStep":false},{"name":"Searching user:  Byron Fields","time":{"start":1706306844248,"stop":1706306844248,"duration":0},"status":"passed","steps":[],"attachments":[],"parameters":[],"shouldDisplayMessage":false,"stepsCount":0,"attachmentsCount":0,"hasContent":false,"attachmentStep":false},{"name":"Searching user:  George Edwards","time":{"start":1706306845457,"stop":1706306845457,"duration":0},"status":"passed","steps":[],"attachments":[],"parameters":[],"shouldDisplayMessage":false,"stepsCount":0,"attachmentsCount":0,"hasContent":false,"attachmentStep":false},{"name":"Searching user:  Rachel Howell","time":{"start":1706306846687,"stop":1706306846687,"duration":0},"status":"passed","steps":[],"attachments":[],"parameters":[],"shouldDisplayMessage":false,"stepsCount":0,"attachmentsCount":0,"hasContent":false,"attachmentStep":false}],"attachments":[],"parameters":[],"shouldDisplayMessage":false,"stepsCount":7,"attachmentsCount":0,"hasContent":true,"attachmentStep":false}],"attachments":[],"parameters":[],"shouldDisplayMessage":false,"stepsCount":16,"attachmentsCount":0,"hasContent":true,"attachmentStep":false},"afterStages":[],"labels":[{"name":"language","value":"javascript"},{"name":"framework","value":"wdio"},{"name":"package","value":".home.runner.work.wdio-e2e-testing.wdio-e2e-testing.test.features.ecommerce.Store.E2E.feature"},{"name":"thread","value":"0-3"},{"name":"suite","value":"E2E Test to Store Website"},{"name":"feature","value":"E2E Test to Store Website"},{"name":"resultFormat","value":"allure2"}],"parameters":[{"name":"browser","value":"chrome-headless-shell-120.0.6099.224"}],"links":[],"hidden":false,"retry":false,"extra":{"severity":"normal","retries":[],"categories":[],"history":{"statistic":{"failed":0,"broken":0,"skipped":0,"passed":4,"unknown":0,"total":4},"items":[{"uid":"6b30e3373ba622e3","reportUrl":"https://JeanColonia.github.io/wdio-e2e-testing/19//#testresult/6b30e3373ba622e3","status":"passed","time":{"start":1706306583471,"stop":1706306605022,"duration":21551}},{"uid":"5757b78ccfaca43f","reportUrl":"https://JeanColonia.github.io/wdio-e2e-testing/18//#testresult/5757b78ccfaca43f","status":"passed","time":{"start":1706216005238,"stop":1706216024564,"duration":19326}},{"uid":"ffd77e98ff1ffccd","reportUrl":"https://JeanColonia.github.io/wdio-e2e-testing/16//#testresult/ffd77e98ff1ffccd","status":"passed","time":{"start":1706125958772,"stop":1706125978178,"duration":19406}}]},"tags":[]},"source":"a094350077aeedb3.json","parameterValues":["chrome-headless-shell-120.0.6099.224"]}