{"uid":"ba2c90527b7c460d","name":"<TestID>: Search external customers","historyId":"e6214354566aaf3288be4f615671691b","time":{"start":1706126110975,"stop":1706126134855,"duration":23880},"status":"passed","flaky":false,"newFailed":false,"newBroken":false,"newPassed":false,"retriesCount":0,"retriesStatusChange":false,"beforeStages":[],"testStage":{"status":"passed","steps":[{"name":"Given Get list of users from reqres.in","time":{"start":1706126110978,"stop":1706126111038,"duration":60},"status":"passed","steps":[{"name":"Getting payload data from the endpoint: users","time":{"start":1706126110981,"stop":1706126110981,"duration":0},"status":"passed","steps":[],"attachments":[],"parameters":[],"shouldDisplayMessage":false,"stepsCount":0,"attachmentsCount":0,"hasContent":false,"attachmentStep":false},{"name":"Making a GET request to https://reqres.in/api/users","time":{"start":1706126110982,"stop":1706126110982,"duration":0},"status":"passed","steps":[],"attachments":[],"parameters":[],"shouldDisplayMessage":false,"stepsCount":0,"attachmentsCount":0,"hasContent":false,"attachmentStep":false},{"name":"API response received, data {\"page\":2,\"per_page\":6,\"total\":12,\"total_pages\":2,\"data\":[{\"id\":7,\"email\":\"michael.lawson@reqres.in\",\"first_name\":\"Michael\",\"last_name\":\"Lawson\",\"avatar\":\"https://reqres.in/img/faces/7-image.jpg\"},{\"id\":8,\"email\":\"lindsay.ferguson@reqres.in\",\"first_name\":\"Lindsay\",\"last_name\":\"Ferguson\",\"avatar\":\"https://reqres.in/img/faces/8-image.jpg\"},{\"id\":9,\"email\":\"tobias.funke@reqres.in\",\"first_name\":\"Tobias\",\"last_name\":\"Funke\",\"avatar\":\"https://reqres.in/img/faces/9-image.jpg\"},{\"id\":10,\"email\":\"byron.fields@reqres.in\",\"first_name\":\"Byron\",\"last_name\":\"Fields\",\"avatar\":\"https://reqres.in/img/faces/10-image.jpg\"},{\"id\":11,\"email\":\"george.edwards@reqres.in\",\"first_name\":\"George\",\"last_name\":\"Edwards\",\"avatar\":\"https://reqres.in/img/faces/11-image.jpg\"},{\"id\":12,\"email\":\"rachel.howell@reqres.in\",\"first_name\":\"Rachel\",\"last_name\":\"Howell\",\"avatar\":\"https://reqres.in/img/faces/12-image.jpg\"}],\"support\":{\"url\":\"https://reqres.in/#support-heading\",\"text\":\"To keep ReqRes free, contributions towards server costs are appreciated!\"}}","time":{"start":1706126111036,"stop":1706126111036,"duration":0},"status":"passed","steps":[],"attachments":[],"parameters":[],"shouldDisplayMessage":false,"stepsCount":0,"attachmentsCount":0,"hasContent":false,"attachmentStep":false},{"name":"API response data storaged in json file ---> /data/api-res/ \"file\"","time":{"start":1706126111037,"stop":1706126111037,"duration":0},"status":"passed","steps":[],"attachments":[],"parameters":[],"shouldDisplayMessage":false,"stepsCount":0,"attachmentsCount":0,"hasContent":false,"attachmentStep":false}],"attachments":[],"parameters":[],"shouldDisplayMessage":false,"stepsCount":4,"attachmentsCount":0,"hasContent":true,"attachmentStep":false},{"name":"When An as admin user login to nopcommerce site","time":{"start":1706126111038,"stop":1706126125943,"duration":14905},"status":"passed","steps":[{"name":"Username entered successfuly...","time":{"start":1706126114897,"stop":1706126114897,"duration":0},"status":"passed","steps":[],"attachments":[],"parameters":[],"shouldDisplayMessage":false,"stepsCount":0,"attachmentsCount":0,"hasContent":false,"attachmentStep":false},{"name":"Password: admin entered successfuly...","time":{"start":1706126115078,"stop":1706126115078,"duration":0},"status":"passed","steps":[],"attachments":[],"parameters":[],"shouldDisplayMessage":false,"stepsCount":0,"attachmentsCount":0,"hasContent":false,"attachmentStep":false}],"attachments":[],"parameters":[],"shouldDisplayMessage":false,"stepsCount":2,"attachmentsCount":0,"hasContent":true,"attachmentStep":false},{"name":"Then Verify if all users exist in customers list","time":{"start":1706126125944,"stop":1706126134854,"duration":8910},"status":"passed","steps":[{"name":"Navigating to Customers page","time":{"start":1706126127254,"stop":1706126127254,"duration":0},"status":"passed","steps":[],"attachments":[],"parameters":[],"shouldDisplayMessage":false,"stepsCount":0,"attachmentsCount":0,"hasContent":false,"attachmentStep":false},{"name":"Searching user:  Michael Lawson","time":{"start":1706126127254,"stop":1706126127254,"duration":0},"status":"passed","steps":[],"attachments":[],"parameters":[],"shouldDisplayMessage":false,"stepsCount":0,"attachmentsCount":0,"hasContent":false,"attachmentStep":false},{"name":"Searching user:  Lindsay Ferguson","time":{"start":1706126128807,"stop":1706126128807,"duration":0},"status":"passed","steps":[],"attachments":[],"parameters":[],"shouldDisplayMessage":false,"stepsCount":0,"attachmentsCount":0,"hasContent":false,"attachmentStep":false},{"name":"Searching user:  Tobias Funke","time":{"start":1706126130095,"stop":1706126130095,"duration":0},"status":"passed","steps":[],"attachments":[],"parameters":[],"shouldDisplayMessage":false,"stepsCount":0,"attachmentsCount":0,"hasContent":false,"attachmentStep":false},{"name":"Searching user:  Byron Fields","time":{"start":1706126131278,"stop":1706126131278,"duration":0},"status":"passed","steps":[],"attachments":[],"parameters":[],"shouldDisplayMessage":false,"stepsCount":0,"attachmentsCount":0,"hasContent":false,"attachmentStep":false},{"name":"Searching user:  George Edwards","time":{"start":1706126132485,"stop":1706126132485,"duration":0},"status":"passed","steps":[],"attachments":[],"parameters":[],"shouldDisplayMessage":false,"stepsCount":0,"attachmentsCount":0,"hasContent":false,"attachmentStep":false},{"name":"Searching user:  Rachel Howell","time":{"start":1706126133670,"stop":1706126133670,"duration":0},"status":"passed","steps":[],"attachments":[],"parameters":[],"shouldDisplayMessage":false,"stepsCount":0,"attachmentsCount":0,"hasContent":false,"attachmentStep":false}],"attachments":[],"parameters":[],"shouldDisplayMessage":false,"stepsCount":7,"attachmentsCount":0,"hasContent":true,"attachmentStep":false}],"attachments":[],"parameters":[],"shouldDisplayMessage":false,"stepsCount":16,"attachmentsCount":0,"hasContent":true,"attachmentStep":false},"afterStages":[],"labels":[{"name":"language","value":"javascript"},{"name":"framework","value":"wdio"},{"name":"package","value":".home.runner.work.wdio-e2e-testing.wdio-e2e-testing.test.features.ecommerce.Store.E2E.feature"},{"name":"thread","value":"0-3"},{"name":"suite","value":"E2E Test to Store Website"},{"name":"feature","value":"E2E Test to Store Website"},{"name":"resultFormat","value":"allure2"}],"parameters":[{"name":"browser","value":"chrome-headless-shell-120.0.6099.216"}],"links":[],"hidden":false,"retry":false,"extra":{"severity":"normal","retries":[],"categories":[],"history":{"statistic":{"failed":0,"broken":0,"skipped":0,"passed":3,"unknown":0,"total":3},"items":[{"uid":"eb843ad079e98d39","reportUrl":"https://JeanColonia.github.io/wdio-e2e-testing/15//#testresult/eb843ad079e98d39","status":"passed","time":{"start":1706124103787,"stop":1706124123809,"duration":20022}},{"uid":"86586d2dc3db7e76","reportUrl":"https://JeanColonia.github.io/wdio-e2e-testing/13//#testresult/86586d2dc3db7e76","status":"passed","time":{"start":1705942805311,"stop":1705942825696,"duration":20385}}]},"tags":[]},"source":"ba2c90527b7c460d.json","parameterValues":["chrome-headless-shell-120.0.6099.216"]}